<?xml version="1.0" encoding="UTF-8"?>
<svg width="20px" height="20px" viewBox="0 0 20 20" version="1.1" xmlns="http://www.w3.org/2000/svg" xmlns:xlink="http://www.w3.org/1999/xlink">
    <!-- Generator: Sketch 62 (91390) - https://sketch.com -->
    <title>ic_youshi</title>
    <desc>Created with Sketch.</desc>
    <g id="页面-1" stroke="none" stroke-width="1" fill="none" fill-rule="evenodd">
        <g id="图标" transform="translate(-725.000000, -428.000000)" fill="#000000" fill-rule="nonzero">
            <g id="编组-89" transform="translate(725.000000, 428.000000)">
                <g id="砖石备份-2" transform="translate(2.000000, 2.000000)">
                    <rect id="矩形" opacity="0" x="0" y="0" width="16" height="16"></rect>
                    <path d="M15.3333333,5 C15.3333333,4.93333333 15.3,4.86666667 15.2666667,4.8 L15.2666667,4.8 L15.2333333,4.76666667 C15.2333333,4.76666667 15.2333333,4.73333334 15.2,4.73333334 L11.2666667,0.8 L11.2666667,0.8 C11.2,0.733333328 11.1,0.666666672 11,0.666666672 L5,0.666666672 C4.9,0.666666672 4.8,0.733333344 4.73333333,0.8 L4.73333333,0.8 L0.766666672,4.76666667 C0.766666672,4.76666667 0.733333344,4.76666667 0.733333344,4.8 L0.700000016,4.83333333 L0.700000016,4.83333333 C0.7,4.86666667 0.666666672,4.93333333 0.666666672,5 C0.666666672,5.06666667 0.7,5.13333333 0.733333344,5.2 L0.733333344,5.2 L7.73333334,15.2 L7.73333334,15.2 C7.80000002,15.2666667 7.90000002,15.3333333 8.00000002,15.3333333 C8.10000002,15.3333333 8.20000002,15.2666667 8.26666669,15.2 L8.26666669,15.2 L15.2666667,5.2 L15.2666667,5.2 C15.3,5.13333333 15.3333333,5.06666667 15.3333333,5 Z M10.8666667,1.33333333 L14.2,4.66666666 L11.2,4.66666666 L9.53333333,1.33333333 L10.8666667,1.33333333 Z M8.8,1.33333333 L10.4666667,4.66666667 L5.53333333,4.66666667 L7.2,1.33333333 L8.8,1.33333333 Z M5.13333333,1.33333333 L6.46666666,1.33333333 L4.79999998,4.66666666 L1.79999998,4.66666666 L5.13333333,1.33333333 Z M1.63333333,5.33333333 L4.73333333,5.33333333 L7.06666666,13.1 L1.63333333,5.33333333 Z M8,13.8333333 L5.43333333,5.33333333 L10.5333333,5.33333333 L8,13.8333333 Z M8.9,13.1 L11.2333333,5.33333333 L14.3333333,5.33333333 L8.9,13.1 Z" id="形状"></path>
                </g>
            </g>
        </g>
    </g>
</svg>