<?xml version="1.0" encoding="UTF-8"?>
<svg width="91px" height="172px" viewBox="0 0 91 172" version="1.1" xmlns="http://www.w3.org/2000/svg" xmlns:xlink="http://www.w3.org/1999/xlink">
    <!-- Generator: Sketch 62 (91390) - https://sketch.com -->
    <title>pic_nv_1</title>
    <desc>Created with Sketch.</desc>
    <defs>
        <path d="M12.7474166,51.2709545 C17.7074066,33.7613794 32.1829139,34.3220308 32.1829139,34.3220308 L32.1829139,34.3220308 L32.2042014,34.3220308 L32.2042014,34.3435943 L56.2762672,34.3430706 C56.8343026,34.3283964 70.8337956,34.1331344 75.6945858,51.292518 L75.6945858,51.292518 L88.1264921,95.0880193 C89.2973052,99.1850873 87.0621166,102.311797 83.5283898,103.325282 C79.994663,104.360331 76.3757862,102.548996 75.4604232,99.2713414 L75.4604232,99.2713414 L63.3904046,56.5755795 L60.0908404,56.5755795 L80.9738885,130.495313 L61.2616535,130.495313 L61.240366,130.516876 L61.240366,162.689642 C61.240366,166.808274 57.7492143,170.258436 53.4917121,170.28 C49.7238227,170.28 45.7643457,166.420131 45.7643457,162.301499 L45.7643457,162.301499 L45.7643457,130.452186 L42.5925066,130.452186 L42.5925066,162.258372 C42.5925066,166.398567 38.6330296,170.258436 34.8651402,170.236873 C30.6076381,170.236873 27.1164863,166.765147 27.1164863,162.646515 L27.1164863,162.646515 L27.1164863,130.473749 L27.0951988,130.452186 L7.38296385,130.452186 L28.3085869,56.5324524 L25.0090227,56.5324524 L12.9390042,99.2282144 C12.0023537,102.505869 8.40476436,104.317204 4.87103758,103.282155 C1.35859831,102.26867 -0.855302809,99.1419603 0.315510282,95.0448922 L0.315510282,95.0448922 Z M44.88,0 C53.622996,0 60.72,7.09028571 60.72,15.84 C60.72,24.5681633 53.622996,31.68 44.88,31.68 C36.137004,31.68 29.04,24.6112653 29.04,15.84 C29.04,7.09028571 36.137004,0 44.88,0 Z" id="path-1"></path>
    </defs>
    <g id="页面-1" stroke="none" stroke-width="1" fill="none" fill-rule="evenodd">
        <g id="图标" transform="translate(-201.000000, -904.000000)">
            <g id="编组-60" transform="translate(201.000000, 904.000000)">
                <g id="Path-2-+-Path-2-+-Path-2-蒙版" transform="translate(1.000000, 1.000000)">
                    <mask id="mask-2" fill="white">
                        <use xlink:href="#path-1"></use>
                    </mask>
                    <use id="蒙版" stroke="#FFC542" stroke-width="1.32" fill="#FFFCF7" fill-rule="nonzero" xlink:href="#path-1"></use>
                </g>
            </g>
        </g>
    </g>
</svg>